{
    "Records":[
        {
            "body":{
                "type":"delete_posts",
                "post_lists": [
                    {
                        "bucket": "node-dev-test-chandan-new",
                        "key": "users/65b36c10c36c1eca2d7988e0/Blogs/file_1706279118012.png"
                    }
                ]
            }
        }
    ]
}